%YAML 1.1
%TAG !u! tag:unity3d.com,2011:
--- !u!114 &11400000
MonoBehaviour:
  m_ObjectHideFlags: 0
  m_CorrespondingSourceObject: {fileID: 0}
  m_PrefabInstance: {fileID: 0}
  m_PrefabAsset: {fileID: 0}
  m_GameObject: {fileID: 0}
  m_Enabled: 1
  m_EditorHideFlags: 0
  m_Script: {fileID: 11500000, guid: 0d538c1c4b1bf97409cfbdec716bef8e, type: 3}
  m_Name: Question_5
  m_EditorClassIdentifier: 
  question: Amir khan ki pichli Biwi kiran Rao ko Bharat mai darr kyun lagta tha?
  answers:
  - Kyunki wo fattu hai
  - Kyunki Amir ki nazar har bhartiy hot naari pr rehti thi
  - Kyunki bharat mai Modi ji ka bhaukaal ho gaya tha
  - Kyunki Kiran Rao ko India mai bhoot dikhnay lagay
  correctAnswerIndex: 1
