%YAML 1.1
%TAG !u! tag:unity3d.com,2011:
--- !u!114 &11400000
MonoBehaviour:
  m_ObjectHideFlags: 0
  m_CorrespondingSourceObject: {fileID: 0}
  m_PrefabInstance: {fileID: 0}
  m_PrefabAsset: {fileID: 0}
  m_GameObject: {fileID: 0}
  m_Enabled: 1
  m_EditorHideFlags: 0
  m_Script: {fileID: 11500000, guid: 0d538c1c4b1bf97409cfbdec716bef8e, type: 3}
  m_Name: Question_3
  m_EditorClassIdentifier: 
  question: Soniya Gandhi nay ManMohan Singh ko PM kyun banaya ?
  answers:
  - Kyunki sardar ka haath dhai kilo ko hota hai
  - Kyunki Manmohan Singh kool aadmi hai
  - Kyunki Soniya Gandhi ko Italy jana tha
  - Kyunki Rahul baccha tha tab
  correctAnswerIndex: 3
